<svg xmlns="http://www.w3.org/2000/svg" width="74.813" height="74.813" viewBox="0 0 74.813 74.813">
  <metadata><?xpacket begin="﻿" id="W5M0MpCehiHzreSzNTczkc9d"?>
<x:xmpmeta xmlns:x="adobe:ns:meta/" x:xmptk="Adobe XMP Core 5.6-c138 79.159824, 2016/09/14-01:09:01        ">
   <rdf:RDF xmlns:rdf="http://www.w3.org/1999/02/22-rdf-syntax-ns#">
      <rdf:Description rdf:about=""/>
   </rdf:RDF>
</x:xmpmeta>
                                                                                                    
                                                                                                    
                                                                                                    
                                                                                                    
                                                                                                    
                                                                                                    
                                                                                                    
                                                                                                    
                                                                                                    
                                                                                                    
                                                                                                    
                                                                                                    
                                                                                                    
                                                                                                    
                                                                                                    
                                                                                                    
                                                                                                    
                                                                                                    
                                                                                                    
                                                                                                    
                           
<?xpacket end="w"?></metadata>
<defs>
    <style>
      .cls-1 {
        fill: #272727;
        stroke: #272727;
        stroke-width: 2px;
        fill-rule: evenodd;
      }
    </style>
  </defs>
  <path id="Forma_1" data-name="Forma 1" class="cls-1" d="M295.273,909.859l-0.521-.787-9.707-9.709a2.427,2.427,0,1,0-3.432,3.432l5.565,5.563h-25.69v-25.7l5.564,5.564a2.427,2.427,0,1,0,3.432-3.433l-9.707-9.709-0.029-.014-0.758-.5-0.929-.19h-0.01l-0.917.19-0.763.5-0.028.014-9.708,9.709a2.427,2.427,0,0,0,3.432,3.433l5.567-5.564v25.7h-25.69l5.562-5.563a2.427,2.427,0,1,0-3.432-3.432l-9.707,9.709-0.014.024-0.5.763-0.189.927v0.01l0.189,0.919,0.5,0.759,0.014,0.028,9.707,9.71a2.427,2.427,0,1,0,3.432-3.433l-5.562-5.566h25.69v25.7l-5.562-5.566a2.427,2.427,0,1,0-3.432,3.432l9.707,9.71,0.787,0.526,0.917,0.185h0.01l0.929-.19,0.787-.521,9.707-9.71a2.427,2.427,0,1,0-3.432-3.432l-5.564,5.566v-25.7h25.69l-5.565,5.566a2.427,2.427,0,0,0,3.432,3.433l9.707-9.71,0.526-.787,0.185-.919v-0.01Z" transform="translate(-221.656 -873.375)"/>
</svg>
